\contentsline {section}{\numberline {1}Part I}{3}{}%
\contentsline {section}{\numberline {2}Part II}{11}{}%
\contentsline {section}{\numberline {3}Part III}{16}{}%
\contentsline {section}{\numberline {4}Appendix}{22}{}%
\contentsline {subsection}{\numberline {4.1}Graphical Determination of Poles}{22}{}%
\contentsline {subsection}{\numberline {4.2}Graphical Determination of 3-dB Points}{24}{}%
\contentsline {subsection}{\numberline {4.3}Percentage Error Calculation}{25}{}%
