%!PS-Adobe-3.0 EPSF-3.0
%%Creator: (MATLAB, The Mathworks, Inc. Version 9.11.0.1837725 \(R2021b\) Update 2. Operating System: Windows 10)
%%Title: C:/Users/james/Documents/UBC/Fall_2022/elec-301/mini_project_2/part1_ib_vbe.eps
%%CreationDate: 2022-10-23T12:23:24
%%Pages: (atend)
%%BoundingBox:     0     0  1152   634
%%LanguageLevel: 3
%%EndComments
%%BeginProlog
%%BeginResource: procset (Apache XML Graphics Std ProcSet) 1.2 0
%%Version: 1.2 0
%%Copyright: (Copyright 2001-2003,2010 The Apache Software Foundation. License terms: http://www.apache.org/licenses/LICENSE-2.0)
/bd{bind def}bind def
/ld{load def}bd
/GR/grestore ld
/GS/gsave ld
/RM/rmoveto ld
/C/curveto ld
/t/show ld
/L/lineto ld
/ML/setmiterlimit ld
/CT/concat ld
/f/fill ld
/N/newpath ld
/S/stroke ld
/CC/setcmykcolor ld
/A/ashow ld
/cp/closepath ld
/RC/setrgbcolor ld
/LJ/setlinejoin ld
/GC/setgray ld
/LW/setlinewidth ld
/M/moveto ld
/re {4 2 roll M
1 index 0 rlineto
0 exch rlineto
neg 0 rlineto
cp } bd
/_ctm matrix def
/_tm matrix def
/BT { _ctm currentmatrix pop matrix _tm copy pop 0 0 moveto } bd
/ET { _ctm setmatrix } bd
/iTm { _ctm setmatrix _tm concat } bd
/Tm { _tm astore pop iTm 0 0 moveto } bd
/ux 0.0 def
/uy 0.0 def
/F {
  /Tp exch def
  /Tf exch def
  Tf findfont Tp scalefont setfont
  /cf Tf def  /cs Tp def
} bd
/ULS {currentpoint /uy exch def /ux exch def} bd
/ULE {
  /Tcx currentpoint pop def
  gsave
  newpath
  cf findfont cs scalefont dup
  /FontMatrix get 0 get /Ts exch def /FontInfo get dup
  /UnderlinePosition get Ts mul /To exch def
  /UnderlineThickness get Ts mul /Tt exch def
  ux uy To add moveto  Tcx uy To add lineto
  Tt setlinewidth stroke
  grestore
} bd
/OLE {
  /Tcx currentpoint pop def
  gsave
  newpath
  cf findfont cs scalefont dup
  /FontMatrix get 0 get /Ts exch def /FontInfo get dup
  /UnderlinePosition get Ts mul /To exch def
  /UnderlineThickness get Ts mul /Tt exch def
  ux uy To add cs add moveto Tcx uy To add cs add lineto
  Tt setlinewidth stroke
  grestore
} bd
/SOE {
  /Tcx currentpoint pop def
  gsave
  newpath
  cf findfont cs scalefont dup
  /FontMatrix get 0 get /Ts exch def /FontInfo get dup
  /UnderlinePosition get Ts mul /To exch def
  /UnderlineThickness get Ts mul /Tt exch def
  ux uy To add cs 10 mul 26 idiv add moveto Tcx uy To add cs 10 mul 26 idiv add lineto
  Tt setlinewidth stroke
  grestore
} bd
/QT {
/Y22 exch store
/X22 exch store
/Y21 exch store
/X21 exch store
currentpoint
/Y21 load 2 mul add 3 div exch
/X21 load 2 mul add 3 div exch
/X21 load 2 mul /X22 load add 3 div
/Y21 load 2 mul /Y22 load add 3 div
/X22 load /Y22 load curveto
} bd
/SSPD {
dup length /d exch dict def
{
/v exch def
/k exch def
currentpagedevice k known {
/cpdv currentpagedevice k get def
v cpdv ne {
/upd false def
/nullv v type /nulltype eq def
/nullcpdv cpdv type /nulltype eq def
nullv nullcpdv or
{
/upd true def
} {
/sametype v type cpdv type eq def
sametype {
v type /arraytype eq {
/vlen v length def
/cpdvlen cpdv length def
vlen cpdvlen eq {
0 1 vlen 1 sub {
/i exch def
/obj v i get def
/cpdobj cpdv i get def
obj cpdobj ne {
/upd true def
exit
} if
} for
} {
/upd true def
} ifelse
} {
v type /dicttype eq {
v {
/dv exch def
/dk exch def
/cpddv cpdv dk get def
dv cpddv ne {
/upd true def
exit
} if
} forall
} {
/upd true def
} ifelse
} ifelse
} if
} ifelse
upd true eq {
d k v put
} if
} if
} if
} forall
d length 0 gt {
d setpagedevice
} if
} bd
/RE { % /NewFontName [NewEncodingArray] /FontName RE -
  findfont dup length dict begin
  {
    1 index /FID ne
    {def} {pop pop} ifelse
  } forall
  /Encoding exch def
  /FontName 1 index def
  currentdict definefont pop
  end
} bind def
%%EndResource
%%BeginResource: procset (Apache XML Graphics EPS ProcSet) 1.0 0
%%Version: 1.0 0
%%Copyright: (Copyright 2002-2003 The Apache Software Foundation. License terms: http://www.apache.org/licenses/LICENSE-2.0)
/BeginEPSF { %def
/b4_Inc_state save def         % Save state for cleanup
/dict_count countdictstack def % Count objects on dict stack
/op_count count 1 sub def      % Count objects on operand stack
userdict begin                 % Push userdict on dict stack
/showpage { } def              % Redefine showpage, { } = null proc
0 setgray 0 setlinecap         % Prepare graphics state
1 setlinewidth 0 setlinejoin
10 setmiterlimit [ ] 0 setdash newpath
/languagelevel where           % If level not equal to 1 then
{pop languagelevel             % set strokeadjust and
1 ne                           % overprint to their defaults.
{false setstrokeadjust false setoverprint
} if
} if
} bd
/EndEPSF { %def
count op_count sub {pop} repeat            % Clean up stacks
countdictstack dict_count sub {end} repeat
b4_Inc_state restore
} bd
%%EndResource
%FOPBeginFontDict
%%IncludeResource: font Courier-Oblique
%%IncludeResource: font Courier-BoldOblique
%%IncludeResource: font Courier-Bold
%%IncludeResource: font ZapfDingbats
%%IncludeResource: font Symbol
%%IncludeResource: font Helvetica
%%IncludeResource: font Helvetica-Oblique
%%IncludeResource: font Helvetica-Bold
%%IncludeResource: font Helvetica-BoldOblique
%%IncludeResource: font Times-Roman
%%IncludeResource: font Times-Italic
%%IncludeResource: font Times-Bold
%%IncludeResource: font Times-BoldItalic
%%IncludeResource: font Courier
%FOPEndFontDict
%%BeginResource: encoding WinAnsiEncoding
/WinAnsiEncoding [
/.notdef /.notdef /.notdef /.notdef /.notdef
/.notdef /.notdef /.notdef /.notdef /.notdef
/.notdef /.notdef /.notdef /.notdef /.notdef
/.notdef /.notdef /.notdef /.notdef /.notdef
/.notdef /.notdef /.notdef /.notdef /.notdef
/.notdef /.notdef /.notdef /.notdef /.notdef
/.notdef /.notdef /space /exclam /quotedbl
/numbersign /dollar /percent /ampersand /quotesingle
/parenleft /parenright /asterisk /plus /comma
/hyphen /period /slash /zero /one
/two /three /four /five /six
/seven /eight /nine /colon /semicolon
/less /equal /greater /question /at
/A /B /C /D /E
/F /G /H /I /J
/K /L /M /N /O
/P /Q /R /S /T
/U /V /W /X /Y
/Z /bracketleft /backslash /bracketright /asciicircum
/underscore /quoteleft /a /b /c
/d /e /f /g /h
/i /j /k /l /m
/n /o /p /q /r
/s /t /u /v /w
/x /y /z /braceleft /bar
/braceright /asciitilde /bullet /Euro /bullet
/quotesinglbase /florin /quotedblbase /ellipsis /dagger
/daggerdbl /circumflex /perthousand /Scaron /guilsinglleft
/OE /bullet /Zcaron /bullet /bullet
/quoteleft /quoteright /quotedblleft /quotedblright /bullet
/endash /emdash /asciitilde /trademark /scaron
/guilsinglright /oe /bullet /zcaron /Ydieresis
/space /exclamdown /cent /sterling /currency
/yen /brokenbar /section /dieresis /copyright
/ordfeminine /guillemotleft /logicalnot /sfthyphen /registered
/macron /degree /plusminus /twosuperior /threesuperior
/acute /mu /paragraph /middot /cedilla
/onesuperior /ordmasculine /guillemotright /onequarter /onehalf
/threequarters /questiondown /Agrave /Aacute /Acircumflex
/Atilde /Adieresis /Aring /AE /Ccedilla
/Egrave /Eacute /Ecircumflex /Edieresis /Igrave
/Iacute /Icircumflex /Idieresis /Eth /Ntilde
/Ograve /Oacute /Ocircumflex /Otilde /Odieresis
/multiply /Oslash /Ugrave /Uacute /Ucircumflex
/Udieresis /Yacute /Thorn /germandbls /agrave
/aacute /acircumflex /atilde /adieresis /aring
/ae /ccedilla /egrave /eacute /ecircumflex
/edieresis /igrave /iacute /icircumflex /idieresis
/eth /ntilde /ograve /oacute /ocircumflex
/otilde /odieresis /divide /oslash /ugrave
/uacute /ucircumflex /udieresis /yacute /thorn
/ydieresis
] def
%%EndResource
%FOPBeginFontReencode
/Courier-Oblique findfont
dup length dict begin
  {1 index /FID ne {def} {pop pop} ifelse} forall
  /Encoding WinAnsiEncoding def
  currentdict
end
/Courier-Oblique exch definefont pop
/Courier-BoldOblique findfont
dup length dict begin
  {1 index /FID ne {def} {pop pop} ifelse} forall
  /Encoding WinAnsiEncoding def
  currentdict
end
/Courier-BoldOblique exch definefont pop
/Courier-Bold findfont
dup length dict begin
  {1 index /FID ne {def} {pop pop} ifelse} forall
  /Encoding WinAnsiEncoding def
  currentdict
end
/Courier-Bold exch definefont pop
/Helvetica findfont
dup length dict begin
  {1 index /FID ne {def} {pop pop} ifelse} forall
  /Encoding WinAnsiEncoding def
  currentdict
end
/Helvetica exch definefont pop
/Helvetica-Oblique findfont
dup length dict begin
  {1 index /FID ne {def} {pop pop} ifelse} forall
  /Encoding WinAnsiEncoding def
  currentdict
end
/Helvetica-Oblique exch definefont pop
/Helvetica-Bold findfont
dup length dict begin
  {1 index /FID ne {def} {pop pop} ifelse} forall
  /Encoding WinAnsiEncoding def
  currentdict
end
/Helvetica-Bold exch definefont pop
/Helvetica-BoldOblique findfont
dup length dict begin
  {1 index /FID ne {def} {pop pop} ifelse} forall
  /Encoding WinAnsiEncoding def
  currentdict
end
/Helvetica-BoldOblique exch definefont pop
/Times-Roman findfont
dup length dict begin
  {1 index /FID ne {def} {pop pop} ifelse} forall
  /Encoding WinAnsiEncoding def
  currentdict
end
/Times-Roman exch definefont pop
/Times-Italic findfont
dup length dict begin
  {1 index /FID ne {def} {pop pop} ifelse} forall
  /Encoding WinAnsiEncoding def
  currentdict
end
/Times-Italic exch definefont pop
/Times-Bold findfont
dup length dict begin
  {1 index /FID ne {def} {pop pop} ifelse} forall
  /Encoding WinAnsiEncoding def
  currentdict
end
/Times-Bold exch definefont pop
/Times-BoldItalic findfont
dup length dict begin
  {1 index /FID ne {def} {pop pop} ifelse} forall
  /Encoding WinAnsiEncoding def
  currentdict
end
/Times-BoldItalic exch definefont pop
/Courier findfont
dup length dict begin
  {1 index /FID ne {def} {pop pop} ifelse} forall
  /Encoding WinAnsiEncoding def
  currentdict
end
/Courier exch definefont pop
%FOPEndFontReencode
%%EndProlog
%%Page: 1 1
%%PageBoundingBox: 0 0 1152 634
%%BeginPageSetup
[1 0 0 -1 0 634] CT
%%EndPageSetup
GS
[0.6 0 0 0.6 0 0.39996] CT
1 GC
N
0 0 1920 1056 re
f
GR
GS
[0.6 0 0 0.6 0 0.39996] CT
1 GC
N
0 0 1920 1056 re
f
GR
GS
[0.6 0 0 0.6 0 0.39996] CT
1 GC
N
250 940 M
1738 940 L
1738 79 L
250 79 L
cp
f
GR
GS
[0.6 0 0 0.6 0 0.39996] CT
0.873 GC
1 LJ
0.833 LW
N
250 940 M
250 79 L
S
GR
GS
[0.6 0 0 0.6 0 0.39996] CT
0.873 GC
1 LJ
0.833 LW
N
398.8 940 M
398.8 79 L
S
GR
GS
[0.6 0 0 0.6 0 0.39996] CT
0.873 GC
1 LJ
0.833 LW
N
547.6 940 M
547.6 79 L
S
GR
GS
[0.6 0 0 0.6 0 0.39996] CT
0.873 GC
1 LJ
0.833 LW
N
696.4 940 M
696.4 79 L
S
GR
GS
[0.6 0 0 0.6 0 0.39996] CT
0.873 GC
1 LJ
0.833 LW
N
845.2 940 M
845.2 79 L
S
GR
GS
[0.6 0 0 0.6 0 0.39996] CT
0.873 GC
1 LJ
0.833 LW
N
994 940 M
994 79 L
S
GR
GS
[0.6 0 0 0.6 0 0.39996] CT
0.873 GC
1 LJ
0.833 LW
N
1142.8 940 M
1142.8 79 L
S
GR
GS
[0.6 0 0 0.6 0 0.39996] CT
0.873 GC
1 LJ
0.833 LW
N
1291.6 940 M
1291.6 79 L
S
GR
GS
[0.6 0 0 0.6 0 0.39996] CT
0.873 GC
1 LJ
0.833 LW
N
1440.4 940 M
1440.4 79 L
S
GR
GS
[0.6 0 0 0.6 0 0.39996] CT
0.873 GC
1 LJ
0.833 LW
N
1589.2 940 M
1589.2 79 L
S
GR
GS
[0.6 0 0 0.6 0 0.39996] CT
0.873 GC
1 LJ
0.833 LW
N
1738 940 M
250 940 L
S
GR
GS
[0.6 0 0 0.6 0 0.39996] CT
0.873 GC
1 LJ
0.833 LW
N
1738 853.9 M
250 853.9 L
S
GR
GS
[0.6 0 0 0.6 0 0.39996] CT
0.873 GC
1 LJ
0.833 LW
N
1738 767.8 M
250 767.8 L
S
GR
GS
[0.6 0 0 0.6 0 0.39996] CT
0.873 GC
1 LJ
0.833 LW
N
1738 681.7 M
250 681.7 L
S
GR
GS
[0.6 0 0 0.6 0 0.39996] CT
0.873 GC
1 LJ
0.833 LW
N
1738 595.6 M
250 595.6 L
S
GR
GS
[0.6 0 0 0.6 0 0.39996] CT
0.873 GC
1 LJ
0.833 LW
N
1738 509.5 M
250 509.5 L
S
GR
GS
[0.6 0 0 0.6 0 0.39996] CT
0.873 GC
1 LJ
0.833 LW
N
1738 423.4 M
250 423.4 L
S
GR
GS
[0.6 0 0 0.6 0 0.39996] CT
0.873 GC
1 LJ
0.833 LW
N
1738 337.3 M
250 337.3 L
S
GR
GS
[0.6 0 0 0.6 0 0.39996] CT
0.873 GC
1 LJ
0.833 LW
N
1738 251.2 M
250 251.2 L
S
GR
GS
[0.6 0 0 0.6 0 0.39996] CT
0.873 GC
1 LJ
0.833 LW
N
1738 165.1 M
250 165.1 L
S
GR
GS
[0.6 0 0 0.6 0 0.39996] CT
0.149 GC
2 setlinecap
1 LJ
0.833 LW
N
250 940 M
1738 940 L
S
GR
GS
[0.6 0 0 0.6 0 0.39996] CT
0.149 GC
2 setlinecap
1 LJ
0.833 LW
N
250 940 M
250 925.12 L
S
GR
GS
[0.6 0 0 0.6 0 0.39996] CT
0.149 GC
2 setlinecap
1 LJ
0.833 LW
N
398.8 940 M
398.8 925.12 L
S
GR
GS
[0.6 0 0 0.6 0 0.39996] CT
0.149 GC
2 setlinecap
1 LJ
0.833 LW
N
547.6 940 M
547.6 925.12 L
S
GR
GS
[0.6 0 0 0.6 0 0.39996] CT
0.149 GC
2 setlinecap
1 LJ
0.833 LW
N
696.4 940 M
696.4 925.12 L
S
GR
GS
[0.6 0 0 0.6 0 0.39996] CT
0.149 GC
2 setlinecap
1 LJ
0.833 LW
N
845.2 940 M
845.2 925.12 L
S
GR
GS
[0.6 0 0 0.6 0 0.39996] CT
0.149 GC
2 setlinecap
1 LJ
0.833 LW
N
994 940 M
994 925.12 L
S
GR
GS
[0.6 0 0 0.6 0 0.39996] CT
0.149 GC
2 setlinecap
1 LJ
0.833 LW
N
1142.8 940 M
1142.8 925.12 L
S
GR
GS
[0.6 0 0 0.6 0 0.39996] CT
0.149 GC
2 setlinecap
1 LJ
0.833 LW
N
1291.6 940 M
1291.6 925.12 L
S
GR
GS
[0.6 0 0 0.6 0 0.39996] CT
0.149 GC
2 setlinecap
1 LJ
0.833 LW
N
1440.4 940 M
1440.4 925.12 L
S
GR
GS
[0.6 0 0 0.6 0 0.39996] CT
0.149 GC
2 setlinecap
1 LJ
0.833 LW
N
1589.2 940 M
1589.2 925.12 L
S
GR
GS
[0.6 0 0 0.6 150 568.40001] CT
0.149 GC
/Helvetica 16.667 F
GS
[1 0 0 1 0 0] CT
-12 17 moveto 
1 -1 scale
(0.5) t 
GR
GR
GS
[0.6 0 0 0.6 239.27992 568.40001] CT
0.149 GC
/Helvetica 16.667 F
GS
[1 0 0 1 0 0] CT
-16.5 17 moveto 
1 -1 scale
(0.52) t 
GR
GR
GS
[0.6 0 0 0.6 328.5601 568.40001] CT
0.149 GC
/Helvetica 16.667 F
GS
[1 0 0 1 0 0] CT
-16.5 17 moveto 
1 -1 scale
(0.54) t 
GR
GR
GS
[0.6 0 0 0.6 417.84001 568.40001] CT
0.149 GC
/Helvetica 16.667 F
GS
[1 0 0 1 0 0] CT
-16.5 17 moveto 
1 -1 scale
(0.56) t 
GR
GR
GS
[0.6 0 0 0.6 507.11993 568.40001] CT
0.149 GC
/Helvetica 16.667 F
GS
[1 0 0 1 0 0] CT
-16.5 17 moveto 
1 -1 scale
(0.58) t 
GR
GR
GS
[0.6 0 0 0.6 596.40015 568.40001] CT
0.149 GC
/Helvetica 16.667 F
GS
[1 0 0 1 0 0] CT
-12 17 moveto 
1 -1 scale
(0.6) t 
GR
GR
GS
[0.6 0 0 0.6 685.68003 568.40001] CT
0.149 GC
/Helvetica 16.667 F
GS
[1 0 0 1 0 0] CT
-16.5 17 moveto 
1 -1 scale
(0.62) t 
GR
GR
GS
[0.6 0 0 0.6 774.95999 568.40001] CT
0.149 GC
/Helvetica 16.667 F
GS
[1 0 0 1 0 0] CT
-16.5 17 moveto 
1 -1 scale
(0.64) t 
GR
GR
GS
[0.6 0 0 0.6 864.24016 568.40001] CT
0.149 GC
/Helvetica 16.667 F
GS
[1 0 0 1 0 0] CT
-16.5 17 moveto 
1 -1 scale
(0.66) t 
GR
GR
GS
[0.6 0 0 0.6 953.52004 568.40001] CT
0.149 GC
/Helvetica 16.667 F
GS
[1 0 0 1 0 0] CT
-16.5 17 moveto 
1 -1 scale
(0.68) t 
GR
GR
GS
[0.6 0 0 0.6 596.4004 581.99998] CT
0.149 GC
N
-38.578 22.697 M
-40.75 5.494 L
-40.937 4.9 -42.781 4.9 QT
-43.047 4.9 -43.047 4.556 QT
-42.984 4.259 -42.906 4.111 QT
-42.828 3.962 -42.594 3.962 QT
-36 3.962 L
-35.859 3.962 -35.789 4.064 QT
-35.719 4.166 -35.719 4.306 QT
-35.828 4.9 -36.078 4.9 QT
-38.187 4.9 -38.328 5.634 QT
-36.547 19.744 L
-28.219 6.478 L
-27.984 6.025 -27.984 5.759 QT
-27.984 5.291 -28.414 5.095 QT
-28.844 4.9 -29.406 4.9 QT
-29.687 4.9 -29.687 4.556 QT
-29.64 4.337 -29.594 4.22 QT
-29.547 4.103 -29.469 4.033 QT
-29.39 3.962 -29.219 3.962 QT
-24.015 3.962 L
-23.765 3.962 -23.765 4.306 QT
-23.875 4.9 -24.125 4.9 QT
-26.156 4.9 -27.297 6.681 QT
-27.359 6.744 -27.39 6.744 QT
-37.344 22.697 L
-37.547 22.994 -37.859 22.994 QT
-38.25 22.994 L
-38.547 22.994 -38.578 22.697 QT
cp
f
GR
GS
[0.6 0 0 0.6 596.4004 581.99998] CT
0.149 GC
N
-28.022 26.4 M
-28.21 26.4 -28.21 26.15 QT
-28.21 26.103 -28.179 25.994 QT
-28.147 25.884 -28.1 25.806 QT
-28.054 25.728 -27.96 25.728 QT
-27.429 25.728 -27.03 25.705 QT
-26.632 25.681 -26.35 25.603 QT
-26.132 25.525 -25.991 25.087 QT
-23.397 14.65 L
-23.35 14.462 -23.35 14.4 QT
-23.35 14.197 -23.569 14.165 QT
-23.944 14.087 -24.944 14.087 QT
-25.132 14.087 -25.132 13.837 QT
-25.132 13.79 -25.1 13.673 QT
-25.069 13.556 -25.015 13.486 QT
-24.96 13.415 -24.897 13.415 QT
-18.085 13.415 L
-17.46 13.415 -16.85 13.572 QT
-16.241 13.728 -15.725 14.064 QT
-15.21 14.4 -14.913 14.892 QT
-14.616 15.384 -14.616 16.04 QT
-14.616 16.759 -14.983 17.369 QT
-15.35 17.978 -15.929 18.439 QT
-16.507 18.9 -17.179 19.189 QT
-17.85 19.478 -18.585 19.619 QT
-18.069 19.619 -17.53 19.822 QT
-16.991 20.025 -16.577 20.376 QT
-16.163 20.728 -15.905 21.22 QT
-15.647 21.712 -15.647 22.275 QT
-15.647 23.415 -16.444 24.369 QT
-17.241 25.322 -18.452 25.861 QT
-19.663 26.4 -20.804 26.4 QT
-28.022 26.4 L
cp
-24.538 25.587 M
-24.538 25.728 -23.882 25.728 QT
-21.163 25.728 L
-20.241 25.728 -19.382 25.212 QT
-18.522 24.697 -18.015 23.845 QT
-17.507 22.994 -17.507 22.072 QT
-17.507 21.494 -17.741 20.994 QT
-17.975 20.494 -18.421 20.197 QT
-18.866 19.9 -19.444 19.9 QT
-23.147 19.9 L
-24.46 25.165 L
-24.538 25.431 -24.538 25.587 QT
cp
-23.007 19.4 M
-20.132 19.4 L
-19.21 19.4 -18.358 18.939 QT
-17.507 18.478 -16.96 17.681 QT
-16.413 16.884 -16.413 15.994 QT
-16.413 15.165 -16.929 14.626 QT
-17.444 14.087 -18.257 14.087 QT
-20.866 14.087 L
-21.382 14.087 -21.554 14.181 QT
-21.725 14.275 -21.85 14.744 QT
-23.007 19.4 L
cp
f
GR
GS
[0.6 0 0 0.6 596.4004 581.99998] CT
0.149 GC
N
-12.99 26.4 M
-13.177 26.4 -13.177 26.15 QT
-13.161 26.103 -13.138 25.986 QT
-13.115 25.869 -13.06 25.798 QT
-13.005 25.728 -12.927 25.728 QT
-11.771 25.728 -11.318 25.603 QT
-11.068 25.525 -10.958 25.087 QT
-8.349 14.65 L
-8.318 14.462 -8.318 14.4 QT
-8.318 14.197 -8.552 14.165 QT
-8.896 14.087 -9.911 14.087 QT
-10.099 14.087 -10.099 13.837 QT
-10.083 13.79 -10.06 13.673 QT
-10.036 13.556 -9.982 13.486 QT
-9.927 13.415 -9.849 13.415 QT
0.448 13.415 L
0.635 13.415 0.635 13.665 QT
0.182 17.603 L
0.182 17.65 0.112 17.712 QT
0.042 17.775 -0.005 17.775 QT
-0.177 17.775 L
-0.365 17.775 -0.365 17.525 QT
-0.255 16.603 -0.255 16.15 QT
-0.255 15.4 -0.521 14.978 QT
-0.786 14.556 -1.216 14.369 QT
-1.646 14.181 -2.169 14.134 QT
-2.693 14.087 -3.552 14.087 QT
-5.708 14.087 L
-6.224 14.087 -6.396 14.173 QT
-6.568 14.259 -6.693 14.744 QT
-7.833 19.337 L
-6.349 19.337 L
-5.396 19.337 -4.904 19.197 QT
-4.411 19.056 -4.122 18.634 QT
-3.833 18.212 -3.599 17.275 QT
-3.583 17.212 -3.529 17.165 QT
-3.474 17.119 -3.411 17.119 QT
-3.24 17.119 L
-3.052 17.119 -3.052 17.353 QT
-4.224 22.056 L
-4.271 22.212 -4.411 22.212 QT
-4.599 22.212 L
-4.786 22.212 -4.786 21.978 QT
-4.599 21.212 -4.599 20.853 QT
-4.599 20.29 -5.099 20.142 QT
-5.599 19.994 -6.427 19.994 QT
-8.005 19.994 L
-9.302 25.165 L
-9.38 25.4 -9.38 25.587 QT
-9.38 25.728 -8.724 25.728 QT
-6.427 25.728 L
-5.052 25.728 -4.2 25.517 QT
-3.349 25.306 -2.786 24.837 QT
-2.224 24.369 -1.818 23.642 QT
-1.411 22.915 -0.833 21.54 QT
-0.786 21.415 -0.661 21.415 QT
-0.49 21.415 L
-0.411 21.415 -0.357 21.478 QT
-0.302 21.54 -0.302 21.634 QT
-0.302 21.665 -0.318 21.712 QT
-2.271 26.29 L
-2.318 26.4 -2.427 26.4 QT
-12.99 26.4 L
cp
f
GR
GS
[0.6 0 0 0.6 596.4004 581.99998] CT
0.149 GC
N
10.684 29.103 M
9.184 27.916 8.09 26.376 QT
6.996 24.837 6.309 23.095 QT
5.621 21.353 5.277 19.455 QT
4.934 17.556 4.934 15.65 QT
4.934 13.712 5.277 11.814 QT
5.621 9.916 6.324 8.166 QT
7.027 6.416 8.121 4.884 QT
9.215 3.353 10.684 2.197 QT
10.684 2.15 10.809 2.15 QT
11.059 2.15 L
11.137 2.15 11.207 2.22 QT
11.277 2.291 11.277 2.384 QT
11.277 2.509 11.215 2.556 QT
9.902 3.853 9.027 5.33 QT
8.152 6.806 7.613 8.47 QT
7.074 10.134 6.84 11.923 QT
6.606 13.712 6.606 15.65 QT
6.606 24.228 11.199 28.681 QT
11.277 28.775 11.277 28.916 QT
11.277 28.978 11.199 29.064 QT
11.121 29.15 11.059 29.15 QT
10.809 29.15 L
10.684 29.15 10.684 29.103 QT
cp
f
GR
GS
[0.6 0 0 0.6 596.4004 581.99998] CT
0.149 GC
N
18.632 22.697 M
16.46 5.494 L
16.273 4.9 14.429 4.9 QT
14.163 4.9 14.163 4.556 QT
14.226 4.259 14.304 4.111 QT
14.382 3.962 14.617 3.962 QT
21.21 3.962 L
21.351 3.962 21.421 4.064 QT
21.492 4.166 21.492 4.306 QT
21.382 4.9 21.132 4.9 QT
19.023 4.9 18.882 5.634 QT
20.663 19.744 L
28.992 6.478 L
29.226 6.025 29.226 5.759 QT
29.226 5.291 28.796 5.095 QT
28.367 4.9 27.804 4.9 QT
27.523 4.9 27.523 4.556 QT
27.57 4.337 27.617 4.22 QT
27.663 4.103 27.742 4.033 QT
27.82 3.962 27.992 3.962 QT
33.195 3.962 L
33.445 3.962 33.445 4.306 QT
33.335 4.9 33.085 4.9 QT
31.054 4.9 29.913 6.681 QT
29.851 6.744 29.82 6.744 QT
19.867 22.697 L
19.663 22.994 19.351 22.994 QT
18.96 22.994 L
18.663 22.994 18.632 22.697 QT
cp
f
GR
GS
[0.6 0 0 0.6 596.4004 581.99998] CT
0.149 GC
N
35.911 29.15 M
35.676 29.15 35.676 28.916 QT
35.676 28.791 35.723 28.744 QT
40.348 24.228 40.348 15.65 QT
40.348 7.072 35.786 2.619 QT
35.676 2.541 35.676 2.384 QT
35.676 2.291 35.747 2.22 QT
35.817 2.15 35.911 2.15 QT
36.161 2.15 L
36.239 2.15 36.301 2.197 QT
38.239 3.728 39.528 5.916 QT
40.817 8.103 41.418 10.587 QT
42.02 13.072 42.02 15.65 QT
42.02 17.556 41.7 19.408 QT
41.379 21.259 40.668 23.064 QT
39.957 24.869 38.879 26.392 QT
37.801 27.916 36.301 29.103 QT
36.239 29.15 36.161 29.15 QT
35.911 29.15 L
cp
f
GR
GS
[0.6 0 0 0.6 0 0.39996] CT
0.149 GC
2 setlinecap
1 LJ
0.833 LW
N
250 940 M
250 79 L
S
GR
GS
[0.6 0 0 0.6 0 0.39996] CT
0.149 GC
2 setlinecap
1 LJ
0.833 LW
N
250 940 M
264.88 940 L
S
GR
GS
[0.6 0 0 0.6 0 0.39996] CT
0.149 GC
2 setlinecap
1 LJ
0.833 LW
N
250 853.9 M
264.88 853.9 L
S
GR
GS
[0.6 0 0 0.6 0 0.39996] CT
0.149 GC
2 setlinecap
1 LJ
0.833 LW
N
250 767.8 M
264.88 767.8 L
S
GR
GS
[0.6 0 0 0.6 0 0.39996] CT
0.149 GC
2 setlinecap
1 LJ
0.833 LW
N
250 681.7 M
264.88 681.7 L
S
GR
GS
[0.6 0 0 0.6 0 0.39996] CT
0.149 GC
2 setlinecap
1 LJ
0.833 LW
N
250 595.6 M
264.88 595.6 L
S
GR
GS
[0.6 0 0 0.6 0 0.39996] CT
0.149 GC
2 setlinecap
1 LJ
0.833 LW
N
250 509.5 M
264.88 509.5 L
S
GR
GS
[0.6 0 0 0.6 0 0.39996] CT
0.149 GC
2 setlinecap
1 LJ
0.833 LW
N
250 423.4 M
264.88 423.4 L
S
GR
GS
[0.6 0 0 0.6 0 0.39996] CT
0.149 GC
2 setlinecap
1 LJ
0.833 LW
N
250 337.3 M
264.88 337.3 L
S
GR
GS
[0.6 0 0 0.6 0 0.39996] CT
0.149 GC
2 setlinecap
1 LJ
0.833 LW
N
250 251.2 M
264.88 251.2 L
S
GR
GS
[0.6 0 0 0.6 0 0.39996] CT
0.149 GC
2 setlinecap
1 LJ
0.833 LW
N
250 165.1 M
264.88 165.1 L
S
GR
GS
[0.6 0 0 0.6 145.99996 564.4] CT
0.149 GC
/Helvetica 16.667 F
GS
[1 0 0 1 0 0] CT
-10 6.5 moveto 
1 -1 scale
(0) t 
GR
GR
GS
[0.6 0 0 0.6 145.99996 512.74001] CT
0.149 GC
/Helvetica 16.667 F
GS
[1 0 0 1 0 0] CT
-24 6.5 moveto 
1 -1 scale
(0.5) t 
GR
GR
GS
[0.6 0 0 0.6 145.99996 461.07998] CT
0.149 GC
/Helvetica 16.667 F
GS
[1 0 0 1 0 0] CT
-10 6.5 moveto 
1 -1 scale
(1) t 
GR
GR
GS
[0.6 0 0 0.6 145.99996 409.41999] CT
0.149 GC
/Helvetica 16.667 F
GS
[1 0 0 1 0 0] CT
-24 6.5 moveto 
1 -1 scale
(1.5) t 
GR
GR
GS
[0.6 0 0 0.6 145.99996 357.75997] CT
0.149 GC
/Helvetica 16.667 F
GS
[1 0 0 1 0 0] CT
-10 6.5 moveto 
1 -1 scale
(2) t 
GR
GR
GS
[0.6 0 0 0.6 145.99996 306.09998] CT
0.149 GC
/Helvetica 16.667 F
GS
[1 0 0 1 0 0] CT
-24 6.5 moveto 
1 -1 scale
(2.5) t 
GR
GR
GS
[0.6 0 0 0.6 145.99996 254.43997] CT
0.149 GC
/Helvetica 16.667 F
GS
[1 0 0 1 0 0] CT
-10 6.5 moveto 
1 -1 scale
(3) t 
GR
GR
GS
[0.6 0 0 0.6 145.99996 202.77995] CT
0.149 GC
/Helvetica 16.667 F
GS
[1 0 0 1 0 0] CT
-24 6.5 moveto 
1 -1 scale
(3.5) t 
GR
GR
GS
[0.6 0 0 0.6 145.99996 151.11997] CT
0.149 GC
/Helvetica 16.667 F
GS
[1 0 0 1 0 0] CT
-10 6.5 moveto 
1 -1 scale
(4) t 
GR
GR
GS
[0.6 0 0 0.6 145.99996 99.45995] CT
0.149 GC
/Helvetica 16.667 F
GS
[1 0 0 1 0 0] CT
-24 6.5 moveto 
1 -1 scale
(4.5) t 
GR
GR
GS
[0 -0.6 0.6 0 128.59998 306.09974] CT
0.149 GC
N
-33.305 -9.6 M
-33.571 -9.6 -33.571 -9.959 QT
-33.477 -10.553 -33.227 -10.553 QT
-31.633 -10.553 -31.071 -10.663 QT
-30.446 -10.803 -30.29 -11.459 QT
-26.587 -26.288 L
-26.54 -26.553 -26.54 -26.631 QT
-26.54 -26.803 -26.626 -26.874 QT
-26.712 -26.944 -26.899 -26.991 QT
-27.43 -27.1 -28.93 -27.1 QT
-29.212 -27.1 -29.212 -27.444 QT
-29.118 -27.788 -29.063 -27.913 QT
-29.008 -28.038 -28.743 -28.038 QT
-21.212 -28.038 L
-20.946 -28.038 -20.946 -27.694 QT
-20.962 -27.616 -21.001 -27.459 QT
-21.04 -27.303 -21.102 -27.202 QT
-21.165 -27.1 -21.305 -27.1 QT
-22.883 -27.1 -23.493 -26.991 QT
-24.087 -26.85 -24.243 -26.178 QT
-27.93 -11.35 L
-27.993 -11.022 -27.993 -10.991 QT
-27.993 -10.928 -27.977 -10.874 QT
-27.962 -10.819 -27.899 -10.772 QT
-27.837 -10.725 -27.782 -10.702 QT
-27.727 -10.678 -27.649 -10.663 QT
-27.133 -10.553 -25.587 -10.553 QT
-25.321 -10.553 -25.321 -10.194 QT
-25.415 -9.819 -25.469 -9.709 QT
-25.524 -9.6 -25.79 -9.6 QT
-33.305 -9.6 L
cp
f
GR
GS
[0 -0.6 0.6 0 128.59998 306.09974] CT
0.149 GC
N
-21.771 -5.6 M
-21.958 -5.6 -21.958 -5.85 QT
-21.958 -5.897 -21.927 -6.006 QT
-21.896 -6.116 -21.849 -6.194 QT
-21.802 -6.272 -21.708 -6.272 QT
-21.177 -6.272 -20.778 -6.295 QT
-20.38 -6.319 -20.099 -6.397 QT
-19.88 -6.475 -19.739 -6.913 QT
-17.146 -17.35 L
-17.099 -17.538 -17.099 -17.6 QT
-17.099 -17.803 -17.317 -17.835 QT
-17.692 -17.913 -18.692 -17.913 QT
-18.88 -17.913 -18.88 -18.163 QT
-18.88 -18.21 -18.849 -18.327 QT
-18.817 -18.444 -18.763 -18.514 QT
-18.708 -18.585 -18.646 -18.585 QT
-11.833 -18.585 L
-11.208 -18.585 -10.599 -18.428 QT
-9.989 -18.272 -9.474 -17.936 QT
-8.958 -17.6 -8.661 -17.108 QT
-8.364 -16.616 -8.364 -15.96 QT
-8.364 -15.241 -8.731 -14.631 QT
-9.099 -14.022 -9.677 -13.561 QT
-10.255 -13.1 -10.927 -12.811 QT
-11.599 -12.522 -12.333 -12.381 QT
-11.817 -12.381 -11.278 -12.178 QT
-10.739 -11.975 -10.325 -11.624 QT
-9.911 -11.272 -9.653 -10.78 QT
-9.396 -10.288 -9.396 -9.725 QT
-9.396 -8.585 -10.192 -7.631 QT
-10.989 -6.678 -12.2 -6.139 QT
-13.411 -5.6 -14.552 -5.6 QT
-21.771 -5.6 L
cp
-18.286 -6.413 M
-18.286 -6.272 -17.63 -6.272 QT
-14.911 -6.272 L
-13.989 -6.272 -13.13 -6.788 QT
-12.271 -7.303 -11.763 -8.155 QT
-11.255 -9.006 -11.255 -9.928 QT
-11.255 -10.506 -11.489 -11.006 QT
-11.724 -11.506 -12.169 -11.803 QT
-12.614 -12.1 -13.192 -12.1 QT
-16.896 -12.1 L
-18.208 -6.835 L
-18.286 -6.569 -18.286 -6.413 QT
cp
-16.755 -12.6 M
-13.88 -12.6 L
-12.958 -12.6 -12.106 -13.061 QT
-11.255 -13.522 -10.708 -14.319 QT
-10.161 -15.116 -10.161 -16.006 QT
-10.161 -16.835 -10.677 -17.374 QT
-11.192 -17.913 -12.005 -17.913 QT
-14.614 -17.913 L
-15.13 -17.913 -15.302 -17.819 QT
-15.474 -17.725 -15.599 -17.256 QT
-16.755 -12.6 L
cp
f
GR
GS
[0 -0.6 0.6 0 128.59998 306.09974] CT
0.149 GC
N
2.08 -2.897 M
0.58 -4.084 -0.514 -5.624 QT
-1.607 -7.163 -2.295 -8.905 QT
-2.982 -10.647 -3.326 -12.545 QT
-3.67 -14.444 -3.67 -16.35 QT
-3.67 -18.288 -3.326 -20.186 QT
-2.982 -22.084 -2.279 -23.834 QT
-1.576 -25.584 -0.482 -27.116 QT
0.611 -28.647 2.08 -29.803 QT
2.08 -29.85 2.205 -29.85 QT
2.455 -29.85 L
2.533 -29.85 2.603 -29.78 QT
2.674 -29.709 2.674 -29.616 QT
2.674 -29.491 2.611 -29.444 QT
1.299 -28.147 0.424 -26.67 QT
-0.451 -25.194 -0.99 -23.53 QT
-1.529 -21.866 -1.764 -20.077 QT
-1.998 -18.288 -1.998 -16.35 QT
-1.998 -7.772 2.596 -3.319 QT
2.674 -3.225 2.674 -3.084 QT
2.674 -3.022 2.596 -2.936 QT
2.518 -2.85 2.455 -2.85 QT
2.205 -2.85 L
2.08 -2.85 2.08 -2.897 QT
cp
f
GR
GS
[0 -0.6 0.6 0 128.59998 306.09974] CT
0.149 GC
N
5.294 -9.6 M
5.029 -9.6 5.029 -9.959 QT
5.138 -10.553 5.372 -10.553 QT
6.466 -10.553 7.263 -10.983 QT
8.06 -11.413 8.638 -12.334 QT
8.685 -12.381 8.685 -12.381 QT
18.325 -28.631 L
18.544 -28.928 18.841 -28.928 QT
19.2 -28.928 L
19.279 -28.928 19.357 -28.897 QT
19.435 -28.866 19.497 -28.788 QT
19.56 -28.709 19.56 -28.631 QT
21.185 -11.194 L
21.185 -11.084 21.31 -10.834 QT
21.575 -10.553 23.325 -10.553 QT
23.607 -10.553 23.607 -10.194 QT
23.513 -9.834 23.45 -9.717 QT
23.388 -9.6 23.138 -9.6 QT
16.388 -9.6 L
16.138 -9.6 16.138 -9.959 QT
16.279 -10.553 16.497 -10.553 QT
18.638 -10.553 18.763 -11.272 QT
18.357 -15.725 L
11.7 -15.725 L
9.529 -12.1 L
9.341 -11.819 9.341 -11.428 QT
9.341 -10.959 9.794 -10.756 QT
10.247 -10.553 10.794 -10.553 QT
11.06 -10.553 11.06 -10.194 QT
10.966 -9.819 10.919 -9.709 QT
10.872 -9.6 10.622 -9.6 QT
5.294 -9.6 L
cp
12.216 -16.678 M
18.247 -16.678 L
17.45 -25.428 L
12.216 -16.678 L
cp
f
GR
GS
[0 -0.6 0.6 0 128.59998 306.09974] CT
0.149 GC
N
25.825 -2.85 M
25.591 -2.85 25.591 -3.084 QT
25.591 -3.209 25.638 -3.256 QT
30.263 -7.772 30.263 -16.35 QT
30.263 -24.928 25.7 -29.381 QT
25.591 -29.459 25.591 -29.616 QT
25.591 -29.709 25.661 -29.78 QT
25.732 -29.85 25.825 -29.85 QT
26.075 -29.85 L
26.154 -29.85 26.216 -29.803 QT
28.154 -28.272 29.443 -26.084 QT
30.732 -23.897 31.333 -21.413 QT
31.935 -18.928 31.935 -16.35 QT
31.935 -14.444 31.615 -12.592 QT
31.294 -10.741 30.583 -8.936 QT
29.872 -7.131 28.794 -5.608 QT
27.716 -4.084 26.216 -2.897 QT
26.154 -2.85 26.075 -2.85 QT
25.825 -2.85 L
cp
f
GR
GS
[0.6 0 0 0.6 150 45.39997] CT
0.149 GC
N
2.5 -0.484 M
2.5 -0.625 2.578 -0.734 QT
6.125 -4.25 L
2.578 -7.781 L
2.5 -7.875 2.5 -8.016 QT
2.5 -8.141 2.602 -8.242 QT
2.703 -8.344 2.844 -8.344 QT
2.953 -8.344 3.094 -8.25 QT
6.609 -4.719 L
10.125 -8.25 L
10.266 -8.344 10.375 -8.344 QT
10.516 -8.344 10.609 -8.25 QT
10.703 -8.156 10.703 -8.016 QT
10.703 -7.875 10.625 -7.781 QT
7.094 -4.25 L
10.625 -0.734 L
10.703 -0.625 10.703 -0.484 QT
10.703 -0.344 10.609 -0.25 QT
10.516 -0.156 10.375 -0.156 QT
10.25 -0.156 10.125 -0.281 QT
6.609 -3.781 L
3.094 -0.281 L
2.969 -0.156 2.844 -0.156 QT
2.703 -0.156 2.602 -0.258 QT
2.5 -0.359 2.5 -0.484 QT
cp
f
GR
GS
[0.6 0 0 0.6 157.8 45.39997] CT
0.149 GC
/Helvetica 16.667 F
GS
[1 0 0 1 0 0] CT
0 0 moveto 
1 -1 scale
(10) t 
GR
GR
GS
[0.6 0 0 0.6 169.2 40.59997] CT
0.149 GC
/Helvetica 13.333 F
GS
[1 0 0 1 0 0] CT
0 0 moveto 
1 -1 scale
(-5) t 
GR
GR
GS
[0.6 0 0 0.6 0 0.39996] CT
1 LJ
3.333 LW
N
250 937.757 M
287.2 937.434 L
324.4 937.062 L
361.6 936.636 L
398.8 936.146 L
436 935.583 L
473.2 934.936 L
510.4 934.191 L
547.6 933.333 L
584.8 932.345 L
622 931.206 L
659.2 929.892 L
696.4 928.374 L
733.6 926.621 L
770.8 924.594 L
808 922.249 L
845.2 919.532 L
882.4 916.383 L
919.6 912.73 L
956.8 908.488 L
994 903.557 L
1031.2 897.822 L
1068.4 891.143 L
1105.6 883.358 L
1142.8 874.276 L
1180 863.67 L
1217.2 851.27 L
1254.4 836.76 L
1291.6 819.761 L
1328.8 799.828 L
1366 776.43 L
1403.2 748.935 L
1440.4 716.592 L
1477.6 678.508 L
1514.8 633.617 L
1552 580.649 L
1589.2 518.086 L
1626.4 444.116 L
1663.6 356.573 L
1700.8 252.866 L
1738 129.891 L
S
GR
GS
[0.6 0 0 0.6 0 0.39996] CT
[10 6] 0 setdash
2 LJ
0.833 LW
N
1343.68 940 M
1343.68 79 L
S
GR
GS
[0.6 0 0 0.6 0 0.39996] CT
[10 6] 0 setdash
2 LJ
0.833 LW
N
250 790.84 M
1738 790.84 L
S
GR
GS
[0.6 0 0 0.6 0 0.39996] CT
0.98 0.98 1 RC
N
1345.305 733.44 M
1345.305 786.24 L
1345.311 786.432 L
1345.33 786.623 L
1345.361 786.813 L
1345.405 787 L
1345.46 787.183 L
1345.528 787.363 L
1345.607 787.538 L
1345.698 787.707 L
1345.799 787.87 L
1345.911 788.026 L
1346.033 788.174 L
1346.164 788.315 L
1346.304 788.446 L
1346.452 788.568 L
1346.608 788.679 L
1346.771 788.781 L
1346.941 788.871 L
1347.116 788.95 L
1347.295 789.018 L
1347.479 789.074 L
1347.666 789.117 L
1347.855 789.149 L
1348.046 789.167 L
1348.238 789.174 L
1451.038 789.174 L
1451.23 789.167 L
1451.421 789.149 L
1451.61 789.117 L
1451.797 789.074 L
1451.981 789.018 L
1452.161 788.95 L
1452.335 788.871 L
1452.505 788.781 L
1452.668 788.679 L
1452.824 788.568 L
1452.972 788.446 L
1453.112 788.315 L
1453.244 788.174 L
1453.365 788.026 L
1453.477 787.87 L
1453.578 787.707 L
1453.669 787.538 L
1453.748 787.363 L
1453.816 787.183 L
1453.871 787 L
1453.915 786.813 L
1453.946 786.623 L
1453.965 786.432 L
1453.971 786.24 L
1453.971 733.44 L
1453.965 733.248 L
1453.946 733.057 L
1453.915 732.868 L
1453.871 732.681 L
1453.816 732.497 L
1453.748 732.318 L
1453.669 732.143 L
1453.578 731.974 L
1453.477 731.811 L
1453.365 731.655 L
1453.244 731.506 L
1453.112 731.366 L
1452.972 731.235 L
1452.824 731.113 L
1452.668 731.001 L
1452.505 730.9 L
1452.335 730.81 L
1452.161 730.73 L
1451.981 730.663 L
1451.797 730.607 L
1451.61 730.563 L
1451.421 730.532 L
1451.23 730.513 L
1451.038 730.507 L
1348.238 730.507 L
1348.046 730.513 L
1347.855 730.532 L
1347.666 730.563 L
1347.479 730.607 L
1347.295 730.663 L
1347.116 730.73 L
1346.941 730.81 L
1346.771 730.9 L
1346.608 731.001 L
1346.452 731.113 L
1346.304 731.235 L
1346.164 731.366 L
1346.033 731.506 L
1345.911 731.655 L
1345.799 731.811 L
1345.698 731.974 L
1345.607 732.143 L
1345.528 732.318 L
1345.46 732.497 L
1345.405 732.681 L
1345.361 732.868 L
1345.33 733.057 L
1345.311 733.248 L
cp
f
GR
GS
[0.6 0 0 0.6 0 0.39996] CT
0.349 GC
1 LJ
0.833 LW
N
1345.305 786.24 M
1345.311 786.432 L
1345.33 786.623 L
1345.361 786.813 L
1345.405 787 L
1345.46 787.183 L
1345.528 787.363 L
1345.607 787.538 L
1345.698 787.707 L
1345.799 787.87 L
1345.911 788.026 L
1346.033 788.174 L
1346.164 788.315 L
1346.304 788.446 L
1346.452 788.568 L
1346.608 788.679 L
1346.771 788.781 L
1346.941 788.871 L
1347.116 788.95 L
1347.295 789.018 L
1347.479 789.074 L
1347.666 789.117 L
1347.855 789.149 L
1348.046 789.167 L
1348.238 789.174 L
1451.038 789.174 L
1451.23 789.167 L
1451.421 789.149 L
1451.61 789.117 L
1451.797 789.074 L
1451.981 789.018 L
1452.161 788.95 L
1452.335 788.871 L
1452.505 788.781 L
1452.668 788.679 L
1452.824 788.568 L
1452.972 788.446 L
1453.112 788.315 L
1453.244 788.174 L
1453.365 788.026 L
1453.477 787.87 L
1453.578 787.707 L
1453.669 787.538 L
1453.748 787.363 L
1453.816 787.183 L
1453.871 787 L
1453.915 786.813 L
1453.946 786.623 L
1453.965 786.432 L
1453.971 786.24 L
1453.971 733.44 L
1453.965 733.248 L
1453.946 733.057 L
1453.915 732.868 L
1453.871 732.681 L
1453.816 732.497 L
1453.748 732.318 L
1453.669 732.143 L
1453.578 731.974 L
1453.477 731.811 L
1453.365 731.655 L
1453.244 731.506 L
1453.112 731.366 L
1452.972 731.235 L
1452.824 731.113 L
1452.668 731.001 L
1452.505 730.9 L
1452.335 730.81 L
1452.161 730.73 L
1451.981 730.663 L
1451.797 730.607 L
1451.61 730.563 L
1451.421 730.532 L
1451.23 730.513 L
1451.038 730.507 L
1348.238 730.507 L
1348.046 730.513 L
1347.855 730.532 L
1347.666 730.563 L
1347.479 730.607 L
1347.295 730.663 L
1347.116 730.73 L
1346.941 730.81 L
1346.771 730.9 L
1346.608 731.001 L
1346.452 731.113 L
1346.304 731.235 L
1346.164 731.366 L
1346.033 731.506 L
1345.911 731.655 L
1345.799 731.811 L
1345.698 731.974 L
1345.607 732.143 L
1345.528 732.318 L
1345.46 732.497 L
1345.405 732.681 L
1345.361 732.868 L
1345.33 733.057 L
1345.311 733.248 L
1345.305 733.44 L
cp
S
GR
GS
[0.6 0 0 0.6 812.4 453.99999] CT
0.251 GC
/Helvetica 16.667 F
GS
[1 0 0 1 0 0] CT
0 0 moveto 
1 -1 scale
(X ) t 
GR
GR
GS
[0.6 0 0 0.6 822 453.99999] CT
0 0.6 1 RC
/Helvetica-Bold 16.667 F
GS
[1 0 0 1 0 0] CT
0 0 moveto 
1 -1 scale
(0.646994) t 
GR
GR
GS
[0.6 0 0 0.6 812.4 466.59999] CT
0.251 GC
/Helvetica 16.667 F
GS
[1 0 0 1 0 0] CT
0 0 moveto 
1 -1 scale
(Y ) t 
GR
GR
GS
[0.6 0 0 0.6 822 466.59999] CT
0 0.6 1 RC
/Helvetica-Bold 16.667 F
GS
[1 0 0 1 0 0] CT
0 0 moveto 
1 -1 scale
(8.662e-06) t 
GR
GR
GS
[0.6 0 0 0.6 806.18284 474.90419] CT
0.149 GC
N
3.333 0 M
3.333 -1.841 1.841 -3.333 0 -3.333 C
-1.841 -3.333 -3.333 -1.841 -3.333 0 C
-3.333 1.841 -1.841 3.333 0 3.333 C
1.841 3.333 3.333 1.841 3.333 0 C
cp
f
GR
GS
[0.6 0 0 0.6 806.18284 474.90419] CT
1 1 0.863 RC
N
0 -3.333 M
1.841 -3.333 3.333 -1.841 3.333 0 C
3.333 0 L
3.333 1.841 1.841 3.333 0 3.333 C
-1.841 3.333 -3.333 1.841 -3.333 0 C
-3.333 -1.841 -1.841 -3.333 0 -3.333 C
cp
0 -5 M
-2.761 -5 -5 -2.761 -5 0 C
-5 2.761 -2.761 5 0 5 C
2.761 5 5 2.761 5 0 C
5 0 L
5 -2.761 2.761 -5 0 -5 C
cp
f
GR
%%Trailer
%%Pages: 1
%%EOF
