\relax 
\newlabel{eqn:general_response}{{1}{3}}
\@writefile{toc}{\contentsline {section}{\numberline {1}Part I}{3}{}\protected@file@percent }
\@writefile{lof}{\contentsline {figure}{\numberline {1}{\ignorespaces Part I: Three-pole Low-pass Filter\relax }}{3}{}\protected@file@percent }
\providecommand*\caption@xref[2]{\@setref\relax\@undefined{#1}}
\newlabel{fig:part1_circuit}{{1}{3}}
\@writefile{lof}{\contentsline {figure}{\numberline {2}{\ignorespaces Part I: Filter in Midband Frequency Range\relax }}{3}{}\protected@file@percent }
\newlabel{fig:part1_midband}{{2}{3}}
\@writefile{lot}{\contentsline {table}{\numberline {1}{\ignorespaces Part I: Calculated Capacitor Values\relax }}{4}{}\protected@file@percent }
\newlabel{tabel:1}{{1}{4}}
\@writefile{lof}{\contentsline {figure}{\numberline {3}{\ignorespaces Part I: Circuit Modeled in Circuit Maker\relax }}{4}{}\protected@file@percent }
\newlabel{fig:part1_CMcircuit}{{3}{4}}
\@writefile{lof}{\contentsline {figure}{\numberline {4}{\ignorespaces Part I: Circuit Magnitude Bode Plot (X=frequency(HZ) Y=voltage(dB))\relax }}{4}{}\protected@file@percent }
\newlabel{fig:part1_circuit_mag}{{4}{4}}
\@writefile{lof}{\contentsline {figure}{\numberline {5}{\ignorespaces Part I: Circuit Phase Bode Plot (X=frequency(HZ) Y=voltage(deg))\relax }}{5}{}\protected@file@percent }
\newlabel{fig:part1_circuit_phase}{{5}{5}}
\@writefile{lof}{\contentsline {figure}{\numberline {6}{\ignorespaces Part I: Transfer Function Modeled in Circuit Maker\relax }}{5}{}\protected@file@percent }
\newlabel{fig:part1_CMsxfer}{{6}{5}}
\@writefile{lof}{\contentsline {figure}{\numberline {7}{\ignorespaces Part I: Circuit and Transfer Function Magnitude Bode Plot (X=frequency(HZ) Y=voltage(dB))   \centering  A: Circuit, B: Transfer Function\relax }}{6}{}\protected@file@percent }
\newlabel{fig:part1_sxfer_mag}{{7}{6}}
\@writefile{lof}{\contentsline {figure}{\numberline {8}{\ignorespaces Part I: Circuit and Transfer Function Phase Bode Plot (X=frequency(HZ) Y=voltage(deg))   \centering  A: Circuit, B: Transfer Function\relax }}{6}{}\protected@file@percent }
\newlabel{fig:part1_sxfer_phase}{{8}{6}}
\@writefile{toc}{\contentsline {section}{\numberline {2}Part II}{7}{}\protected@file@percent }
\@writefile{lof}{\contentsline {figure}{\numberline {9}{\ignorespaces Part II: Four-pole RC Filter\relax }}{7}{}\protected@file@percent }
\newlabel{fig:part2_circuit}{{9}{7}}
\@writefile{lot}{\contentsline {table}{\numberline {2}{\ignorespaces Part II: Component Values for Figure 9\hbox {}\relax }}{7}{}\protected@file@percent }
\newlabel{tabel:2}{{2}{7}}
\@writefile{lot}{\contentsline {table}{\numberline {3}{\ignorespaces Part III: Calculated Poles, Time Constants, and Equivalent Resistances\relax }}{7}{}\protected@file@percent }
\newlabel{tab:part2_time_constants}{{3}{7}}
\@writefile{lof}{\contentsline {figure}{\numberline {10}{\ignorespaces Part II: RC Filter at Midband\relax }}{8}{}\protected@file@percent }
\newlabel{fig:part2_midband}{{10}{8}}
\@writefile{lof}{\contentsline {figure}{\numberline {11}{\ignorespaces Part II: Filter Modeled in Circuit Maker\relax }}{8}{}\protected@file@percent }
\newlabel{fig:part2_CM_circuit}{{11}{8}}
\@writefile{lof}{\contentsline {figure}{\numberline {12}{\ignorespaces Part II: Circuit and Transfer Function Magnitude Bode Plot (X=frequency(HZ) Y=voltage(dB))\relax }}{9}{}\protected@file@percent }
\newlabel{fig:part2_magnitude}{{12}{9}}
\@writefile{lof}{\contentsline {figure}{\numberline {13}{\ignorespaces Part II: Circuit and Transfer Function Phase Bode Plot (X=frequency(HZ) Y=voltage(deg))\relax }}{9}{}\protected@file@percent }
\newlabel{fig:part2_phase}{{13}{9}}
\@writefile{lot}{\contentsline {table}{\numberline {4}{\ignorespaces Part II: Graphically Determine Transfer Function Pole Locations\relax }}{9}{}\protected@file@percent }
\newlabel{tab:part2_sxfer_poles}{{4}{9}}
\newlabel{eqn:unkown_poles}{{2}{9}}
\newlabel{eqn:known_poles}{{3}{10}}
\@writefile{lot}{\contentsline {table}{\numberline {5}{\ignorespaces Part II: Summary of Calculated and Simulated Low Frequency 3-dB Values\relax }}{10}{}\protected@file@percent }
\newlabel{tab:low_3dB}{{5}{10}}
\@writefile{toc}{\contentsline {section}{\numberline {3}Part III}{11}{}\protected@file@percent }
\@writefile{lof}{\contentsline {figure}{\numberline {14}{\ignorespaces Part III: Basic Transconductance Amplifier\relax }}{11}{}\protected@file@percent }
\newlabel{fig:part3_circuit}{{14}{11}}
\@writefile{lot}{\contentsline {table}{\numberline {6}{\ignorespaces Part III: Component Values for Figure 14\hbox {}\relax }}{11}{}\protected@file@percent }
\newlabel{tabel:3}{{6}{11}}
\@writefile{lof}{\contentsline {figure}{\numberline {15}{\ignorespaces Part III: Amplifier Circuit in Midband Frequency Region\relax }}{11}{}\protected@file@percent }
\newlabel{fig:part3_midband}{{15}{11}}
\@writefile{lof}{\contentsline {figure}{\numberline {16}{\ignorespaces Part III: Amplifier Circuit High Frequency Region\relax }}{12}{}\protected@file@percent }
\newlabel{fig:part3_miller}{{16}{12}}
\@writefile{lot}{\contentsline {table}{\numberline {7}{\ignorespaces Part III: Calculated Poles, Time Constants, and Equivalent Resistances\relax }}{12}{}\protected@file@percent }
\newlabel{tab:part3_time_constants}{{7}{12}}
\@writefile{lof}{\contentsline {figure}{\numberline {17}{\ignorespaces Part III: Amplifier Circuit Modeled in Circuit Maker\relax }}{12}{}\protected@file@percent }
\newlabel{fig:part3_CMcircuit}{{17}{12}}
\@writefile{lof}{\contentsline {figure}{\numberline {18}{\ignorespaces Part III: Circuit Magnitude Bode Plot (X=frequency(HZ) Y=voltage(dB))\relax }}{13}{}\protected@file@percent }
\newlabel{fig:part3_mag}{{18}{13}}
\@writefile{lof}{\contentsline {figure}{\numberline {19}{\ignorespaces Part III: Circuit Phase Bode Plot (X=frequency(HZ) Y=voltage(deg))\relax }}{13}{}\protected@file@percent }
\newlabel{fig:part3_phase}{{19}{13}}
\@writefile{lot}{\contentsline {table}{\numberline {8}{\ignorespaces Part III: Comparison of Calculated Poles to Graphical Poles\relax }}{14}{}\protected@file@percent }
\newlabel{tab:part3_poles_compared}{{8}{14}}
\@writefile{lot}{\contentsline {table}{\numberline {9}{\ignorespaces Part III: Comparison Simulated and Calculated 3-dB Points\relax }}{14}{}\protected@file@percent }
\newlabel{tab:part3_3dB}{{9}{14}}
\@writefile{toc}{\contentsline {section}{\numberline {4}Appendix}{15}{}\protected@file@percent }
\@writefile{toc}{\contentsline {subsection}{\numberline {4.1}Graphical Determination of Poles}{15}{}\protected@file@percent }
\@writefile{lof}{\contentsline {figure}{\numberline {20}{\ignorespaces Part II: Graphical Determination of Poles\relax }}{15}{}\protected@file@percent }
\newlabel{fig:part2_graphical}{{20}{15}}
\@writefile{lof}{\contentsline {figure}{\numberline {21}{\ignorespaces Part III: Graphical Determination of Poles\relax }}{15}{}\protected@file@percent }
\newlabel{fig:part3_graphical}{{21}{15}}
\@writefile{toc}{\contentsline {subsection}{\numberline {4.2}Graphical Determination of 3-dB Points}{16}{}\protected@file@percent }
\@writefile{lof}{\contentsline {figure}{\numberline {22}{\ignorespaces Part II: Graphical Determination of 3-dB Points\relax }}{16}{}\protected@file@percent }
\newlabel{fig:part2_3dB}{{22}{16}}
\@writefile{lof}{\contentsline {figure}{\numberline {23}{\ignorespaces Part III: Graphical Determination of 3-dB Points\relax }}{16}{}\protected@file@percent }
\newlabel{fig:part3_3dB}{{23}{16}}
\@writefile{toc}{\contentsline {subsection}{\numberline {4.3}Percentage Error Calculation}{16}{}\protected@file@percent }
\gdef \@abspage@last{16}
