\contentsline {section}{\numberline {1}Part I}{3}{}%
\contentsline {section}{\numberline {2}Part II}{7}{}%
\contentsline {section}{\numberline {3}Part III}{11}{}%
\contentsline {section}{\numberline {4}Appendix}{15}{}%
\contentsline {subsection}{\numberline {4.1}Graphical Determination of Poles}{15}{}%
\contentsline {subsection}{\numberline {4.2}Graphical Determination of 3-dB Points}{16}{}%
\contentsline {subsection}{\numberline {4.3}Percentage Error Calculation}{16}{}%
